{
    "date": "2021-05-26",
    "tiers1": [
        "EcoCyc",
        "MetaCyc",
        "HumanCyc",
        "AraCyc",
        "YeastCyc"
    ],
    "tiers2": [
        "Acinetobacter baumannii, Strain ATCC 17978",
        "Agrobacterium fabrum C58",
        "Anopheles gambiae",
        "Aurantimonas manganoxydans SI85-9A1",
        "Bacillus anthracis Ames",
        "Bacillus subtilis 168",
        "Bacteroides thetaiotaomicron VPI-5482",
        "Candidatus Cardinium hertigii",
        "Candidatus Evansia muelleri",
        "Candidatus Portiera aleyrodidarum BT-QVLC",
        "Candida albicans SC5314",
        "Caulobacter crescentus CB15",
        "Chlamydia trachomatis D/UW-3/CX",
        "Caulobacter crescentus NA1000",
        "Clostridium saccharoperbutylacetonicum ATCC 27021",
        "Clostridium symbiosum WAL-14163",
        "Collinsella aerofaciens ATCC 25986",
        "Corynebacterium glutamicum ATCC 13032",
        "Desulfovibrio piger ATCC 29098",
        "Drosophila melanogaster",
        "Escherichia coli B str. REL606",
        "Escherichia coli CFT073",
        "Escherichia coli K-12 substr. W3110",
        "Escherichia coli O157:H7 str. EDL933",
        "Eubacterium rectale ATCC 33656",
        "Faecalibacterium prausnitzii A2-165",
        "Helicobacter pylori 26695",
        "Lactobacillus rhamnosus GG",
        "Leishmania major Friedlin",
        "Listeria monocytogenes 10403S",
        "Methanobrevibacter smithiiATCC 35061",
        "Methanosarcina mazei strain Go1",
        "Mus musculus",
        "Mycobacterium tuberculosis CDC1551",
        "Mycobacterium tuberculosis H37Rv",
        "Penicillium chrysogenum Wisconsin 54-1255",
        "Peptoclostridium difficile 630",
        "Plasmodium falciparum 3D7",
        "Prevotella copri DSM 18205",
        "Prochlorococcus marinus CCMP1375",
        "Prochlorococcus marinus pastoris CCMP1986",
        "Pseudomonas putida KT2440",
        "Salmonella enterica enterica serovar Typhimurium str. 14028S",
        "Salmonella enterica enterica serovar Typhimurium str. LT2",
        "Salmonella enterica enterica serovar Typhimurium str. SL1344",
        "Schistosoma mansoni",
        "Shigella flexneri 2a str. 2457T",
        "Sinorhizobium meliloti 1021",
        "Staphylococcus subsp. aureus str. NCTC 8325",
        "Streptomyces coelicolor A3(2)",
        "Synechococcus elongatus PCC 7942",
        "Synechococcus sp. WH 8102",
        "Sulfurospirillum multivorans",
        "Thalassiosira pseudonana CCMP1335",
        "Trypanosoma brucei",
        "Vibrio cholerae O1 biovar El Tor str. N16961"
    ]
}